%YAML 1.1
%TAG !u! tag:unity3d.com,2011:
--- !u!74 &7400000
AnimationClip:
  m_ObjectHideFlags: 0
  m_PrefabParentObject: {fileID: 0}
  m_PrefabInternal: {fileID: 0}
  m_Name: TextBlinkAndScale
  serializedVersion: 4
  m_AnimationType: 2
  m_Compressed: 0
  m_UseHighQualityCurve: 1
  m_RotationCurves: []
  m_CompressedRotationCurves: []
  m_PositionCurves: []
  m_ScaleCurves:
  - curve:
      serializedVersion: 2
      m_Curve:
      - time: 0
        value: {x: 1, y: 1, z: 1}
        inSlope: {x: 1.92747116, y: 1.92747188, z: 1.92747188}
        outSlope: {x: 1.92747116, y: 1.92747188, z: 1.92747188}
        tangentMode: 112654520
      - time: .166666672
        value: {x: 1.32124519, y: 1.32124531, z: 1.32124531}
        inSlope: {x: 0, y: 0, z: 0}
        outSlope: {x: 0, y: 0, z: 0}
        tangentMode: 84
      - time: .333333343
        value: {x: 1, y: 1, z: 1}
        inSlope: {x: -6.55651093e-07, y: -1.01327896e-06, z: -1.01327896e-06}
        outSlope: {x: -6.55651093e-07, y: -1.01327896e-06, z: -1.01327896e-06}
        tangentMode: 0
      - time: .5
        value: {x: 1.32124496, y: 1.32124496, z: 1.32124496}
        inSlope: {x: 1.78813934e-07, y: 1.78813934e-07, z: 1.78813934e-07}
        outSlope: {x: 1.78813934e-07, y: 1.78813934e-07, z: 1.78813934e-07}
        tangentMode: 0
      - time: .666666687
        value: {x: 1, y: 1, z: 1}
        inSlope: {x: 3.57627869e-07, y: 3.57627869e-07, z: 3.57627869e-07}
        outSlope: {x: 3.57627869e-07, y: 3.57627869e-07, z: 3.57627869e-07}
        tangentMode: 112792188
      - time: .833333313
        value: {x: 1.32124496, y: 1.32124496, z: 1.32124496}
        inSlope: {x: 3.57627869e-07, y: 3.57627869e-07, z: 3.57627869e-07}
        outSlope: {x: 3.57627869e-07, y: 3.57627869e-07, z: 3.57627869e-07}
        tangentMode: 2053722996
      - time: 1
        value: {x: 1, y: 1, z: 1}
        inSlope: {x: -1.92746949, y: -1.92746949, z: -1.92746949}
        outSlope: {x: -1.92746949, y: -1.92746949, z: -1.92746949}
        tangentMode: 318351256
      m_PreInfinity: 2
      m_PostInfinity: 2
    path: 
  m_FloatCurves: []
  m_PPtrCurves: []
  m_SampleRate: 60
  m_WrapMode: 0
  m_Bounds:
    m_Center: {x: 0, y: 0, z: 0}
    m_Extent: {x: 0, y: 0, z: 0}
  m_ClipBindingConstant:
    genericBindings:
    - path: 0
      attribute: 3
      script: {fileID: 0}
      classID: 4
      customType: 0
      isPPtrCurve: 0
    pptrCurveMapping: []
  m_AnimationClipSettings:
    serializedVersion: 2
    m_StartTime: 0
    m_StopTime: 1
    m_OrientationOffsetY: 0
    m_Level: 0
    m_CycleOffset: 0
    m_LoopTime: 0
    m_LoopBlend: 0
    m_LoopBlendOrientation: 0
    m_LoopBlendPositionY: 0
    m_LoopBlendPositionXZ: 0
    m_KeepOriginalOrientation: 0
    m_KeepOriginalPositionY: 1
    m_KeepOriginalPositionXZ: 0
    m_HeightFromFeet: 0
    m_Mirror: 0
  m_EditorCurves:
  - curve:
      serializedVersion: 2
      m_Curve:
      - time: 0
        value: 1
        inSlope: 1.92747116
        outSlope: 1.92747116
        tangentMode: 10
      - time: .166666672
        value: 1.32124519
        inSlope: 0
        outSlope: 0
        tangentMode: 10
      - time: .333333343
        value: 1
        inSlope: -6.55651093e-07
        outSlope: -6.55651093e-07
        tangentMode: 10
      - time: .5
        value: 1.32124496
        inSlope: 1.78813934e-07
        outSlope: 1.78813934e-07
        tangentMode: 10
      - time: .666666687
        value: 1
        inSlope: 3.57627869e-07
        outSlope: 3.57627869e-07
        tangentMode: 10
      - time: .833333313
        value: 1.32124496
        inSlope: 3.57627869e-07
        outSlope: 3.57627869e-07
        tangentMode: 10
      - time: 1
        value: 1
        inSlope: -1.92746949
        outSlope: -1.92746949
        tangentMode: 10
      m_PreInfinity: 2
      m_PostInfinity: 2
    attribute: m_LocalScale.x
    path: 
    classID: 224
    script: {fileID: 0}
  - curve:
      serializedVersion: 2
      m_Curve:
      - time: 0
        value: 1
        inSlope: 1.92747188
        outSlope: 1.92747188
        tangentMode: 10
      - time: .166666672
        value: 1.32124531
        inSlope: 0
        outSlope: 0
        tangentMode: 10
      - time: .333333343
        value: 1
        inSlope: -1.01327896e-06
        outSlope: -1.01327896e-06
        tangentMode: 10
      - time: .5
        value: 1.32124496
        inSlope: 1.78813934e-07
        outSlope: 1.78813934e-07
        tangentMode: 10
      - time: .666666687
        value: 1
        inSlope: 3.57627869e-07
        outSlope: 3.57627869e-07
        tangentMode: 10
      - time: .833333313
        value: 1.32124496
        inSlope: 3.57627869e-07
        outSlope: 3.57627869e-07
        tangentMode: 10
      - time: 1
        value: 1
        inSlope: -1.92746949
        outSlope: -1.92746949
        tangentMode: 10
      m_PreInfinity: 2
      m_PostInfinity: 2
    attribute: m_LocalScale.y
    path: 
    classID: 224
    script: {fileID: 0}
  - curve:
      serializedVersion: 2
      m_Curve:
      - time: 0
        value: 1
        inSlope: 1.92747188
        outSlope: 1.92747188
        tangentMode: 10
      - time: .166666672
        value: 1.32124531
        inSlope: 0
        outSlope: 0
        tangentMode: 10
      - time: .333333343
        value: 1
        inSlope: -1.01327896e-06
        outSlope: -1.01327896e-06
        tangentMode: 10
      - time: .5
        value: 1.32124496
        inSlope: 1.78813934e-07
        outSlope: 1.78813934e-07
        tangentMode: 10
      - time: .666666687
        value: 1
        inSlope: 3.57627869e-07
        outSlope: 3.57627869e-07
        tangentMode: 10
      - time: .833333313
        value: 1.32124496
        inSlope: 3.57627869e-07
        outSlope: 3.57627869e-07
        tangentMode: 10
      - time: 1
        value: 1
        inSlope: -1.92746949
        outSlope: -1.92746949
        tangentMode: 10
      m_PreInfinity: 2
      m_PostInfinity: 2
    attribute: m_LocalScale.z
    path: 
    classID: 224
    script: {fileID: 0}
  m_EulerEditorCurves: []
  m_Events: []
